<?xml version="1.0" encoding="UTF-8"?>
<svg width="24px" height="24px" viewBox="0 0 24 24" version="1.1" xmlns="http://www.w3.org/2000/svg" xmlns:xlink="http://www.w3.org/1999/xlink">
    <title>31373850-C5DC-4520-B2AC-9D0AADF74A85</title>
    <g id="Account" stroke="none" stroke-width="1" fill="none" fill-rule="evenodd">
        <g id="Account---Dashboard" transform="translate(-40.000000, -433.000000)" fill="currentColor">
            <g id="Tab-Menu" transform="translate(40.000000, 272.000000)">
                <g id="Navigation/Tab" transform="translate(0.000000, 148.000000)">
                    <g id="Icons/Account/Account-Data" transform="translate(0.000000, 13.000000)">
                        <path d="M18.7504202,23.9999928 C19.992147,23.9999928 20.9999571,22.9921828 20.9999571,21.750456 L20.9999571,6.18611625 C20.9999571,5.59129955 20.7609135,5.01474758 20.3390395,4.59287359 L16.4071336,0.660967682 C15.9852596,0.239093687 15.4134226,5.00679016e-05 14.8185601,5.00679016e-05 L5.24953687,5.00679016e-05 C4.0078101,0.00471924622 3,1.01252934 3,2.25425612 L3,21.750456 C3,22.9921828 4.0078101,23.9999928 5.24953687,23.9999928 L18.7504202,23.9999928 Z M6.74999106,22.5004542 L5.24953687,22.5004542 C4.83704701,22.5004542 4.49953866,22.1629458 4.49953866,21.750456 L4.49953866,2.25425612 C4.49953866,1.84176626 4.83704701,1.50004649 5.24953687,1.50004649 L13.501394,1.50004649 L13.501394,6.37833076 C13.501394,7.00175762 14.0029645,7.50003219 14.6263913,7.50003219 L19.5004184,7.50003219 L19.5004184,21.750456 C19.5004184,22.1629458 19.1629101,22.5004542 18.7504202,22.5004542 L17.249966,22.5004542 L17.249966,21.0403289 C17.249966,20.3897109 17.0526246,19.7854643 16.7151162,19.2834361 C16.1488639,18.4425262 15.1837173,18.0000072 14.1913796,18.0000072 C13.2791961,18.0000072 13.0494908,18.3276736 11.9999785,18.3276736 C10.949505,18.3276736 10.7221801,18.0000072 9.80857752,18.0000072 C8.8162398,18.0000072 7.85109317,18.4425262 7.28529862,19.2834361 C6.94733251,19.7850066 6.74999106,20.3897109 6.74999106,21.0403289 L6.74999106,22.5004542 Z M19.476981,6.00333165 L15.0013905,6.00333165 L15.0013905,1.52769535 C15.132631,1.56051693 15.2498182,1.62616008 15.3482372,1.72457904 L19.2800973,5.65643917 C19.378562,5.75485812 19.4441594,5.87204535 19.476981,6.00333165 Z M11.9999785,17.2500089 C14.0708965,17.2500089 15.7499696,15.5709358 15.7499696,13.5000179 C15.7499696,11.4285964 14.0708965,9.75002682 11.9999785,9.75002682 C9.92906063,9.75002682 8.24998748,11.4285964 8.24998748,13.5000179 C8.24998748,15.5709358 9.92906063,17.2500089 11.9999785,17.2500089 Z M11.9999785,15.7500125 C10.7592131,15.7500125 9.74998391,14.7407834 9.74998391,13.5000179 C9.74998391,12.2592524 10.7592131,11.2500232 11.9999785,11.2500232 C13.240744,11.2500232 14.2499732,12.2592524 14.2499732,13.5000179 C14.2499732,14.7407834 13.240744,15.7500125 11.9999785,15.7500125 Z M15.7499696,22.5004542 L8.24998748,22.5004542 L8.24998748,21.0403289 C8.24998748,20.1787739 8.86169562,19.5000036 9.80857752,19.5000036 C10.392179,19.5000036 10.783566,19.82767 11.9999785,19.82767 C13.1952882,19.82767 13.6199545,19.5000036 14.1913796,19.5000036 C15.1363846,19.5000036 15.7499696,20.1763936 15.7499696,21.0403289 L15.7499696,22.5004542 Z" id=""></path>
                    </g>
                </g>
            </g>
        </g>
    </g>
</svg>