<svg width="24" height="24" xmlns="http://www.w3.org/2000/svg">
    <path d="M12 13c1.5 0 3 .333 4.5 1 2.897 1.243 4.395 2.84 4.495 4.79L21 19v3c-3 .588-5.632 1-9 1-3.143 0-5.646-.359-8.405-.885L3 22v-3c0-1.73 1.5-3.397 4.5-5 1.5-.667 3-1 4.5-1zm0 1.75c-1.244 0-2.487.279-3.73.823-1.254.675-2.212 1.347-2.844 2.05-.36.4-.614.796-.666 1.217l-.01.16v1.55l.581.102c2.126.364 4.19.598 6.669.598 2.479 0 4.543-.234 6.669-.598l.581-.102V19l-.009-.197c-.047-.52-.28-.987-.667-1.417-.611-.68-1.546-1.255-2.785-1.787-1.263-.561-2.525-.849-3.789-.849zM12 0a6 6 0 1 1 0 12 6 6 0 0 1 0-12zm0 1.75A4.253 4.253 0 0 0 7.75 6 4.253 4.253 0 0 0 12 10.25 4.253 4.253 0 0 0 16.25 6 4.253 4.253 0 0 0 12 1.75z" fill="#473D3D" fill-rule="evenodd"/>
</svg>
