<svg width="50" height="50" viewBox="0 0 50 50" fill="none" xmlns="http://www.w3.org/2000/svg" version="1.1">
<path d="M44.0264 19.1289C43.9438 19.012 43.8288 18.9218 43.6955 18.8695L24.9138 11.6251C24.8287 11.5902 24.7376 11.5719 24.6455 11.5715C24.5626 11.558 24.478 11.558 24.3951 11.5715L5.76543 18.8874C5.63281 18.9363 5.51766 19.0235 5.43452 19.1378C5.35635 19.2558 5.30731 19.3907 5.29142 19.5313C5.29084 19.6726 5.32788 19.8116 5.39874 19.9338C5.46092 20.0606 5.56526 20.1618 5.69388 20.22L12.5716 23.6633V32.5444C12.5997 33.181 12.7973 33.7985 13.144 34.3331C13.4701 34.866 13.9334 35.3016 14.4855 35.5942C16.7035 37.0699 20.6298 38 24.7081 38C28.7864 38 32.7574 37.1056 34.9218 35.5763C35.4918 35.2902 35.9785 34.862 36.3349 34.3331C36.6737 33.7942 36.8735 33.1795 36.9162 32.5444V23.6633L39.5993 22.2323V33.0631C39.6537 33.1727 39.7334 33.2677 39.8318 33.3404C39.9658 33.4245 40.1208 33.4692 40.279 33.4692C40.4372 33.4692 40.5922 33.4245 40.7262 33.3404C40.8505 33.2479 40.9441 33.1201 40.9945 32.9737V21.5794L43.6776 20.22C43.8004 20.1535 43.9025 20.0545 43.9728 19.9338C44.0508 19.8174 44.0925 19.6804 44.0925 19.5403C44.0925 19.4001 44.0508 19.2632 43.9728 19.1468L44.0264 19.1289ZM13.9757 24.3699L14.4318 24.5935L22.6511 28.7165L24.3146 29.6108C24.4159 29.6674 24.5295 29.6981 24.6455 29.7003C24.7545 29.6971 24.8615 29.6696 24.9585 29.6198L26.7473 28.7254L29.967 27.1156L35.4316 24.3699V32.6517C35.4316 34.5478 31.1207 36.5869 24.6992 36.5869C18.2776 36.5869 13.9757 34.4583 13.9757 32.5444V24.3699ZM24.7707 28.0725L24.6723 28.153L22.7942 27.2587L7.71515 19.7013L8.40381 19.3793L24.6723 13.0561L41.6027 19.6297L40.9856 19.9427L26.4968 27.2587L24.7707 28.0725Z" fill="black"/>
</svg>
